{
    "relationships": [
        {
            "relationshipId": 1,
            "relationshipName": "question",
            "otherEntityName": "question",
            "relationshipType": "one-to-many",
            "otherEntityRelationshipName": "category"
        }
    ],
    "fields": [
        {
            "fieldId": 1,
            "fieldName": "categoryName",
            "fieldType": "String"
        },
        {
            "fieldName": "numberOfQuestionsPerPage",
            "fieldType": "Integer"
        },
        {
            "fieldName": "questionHeading",
            "fieldType": "String"
        },
        {
            "fieldName": "categoryGroupId",
            "fieldType": "Integer"
        },
        {
            "fieldName": "preText",
            "fieldType": "String"
        },
        {
            "fieldName": "postText",
            "fieldType": "String"
        }
    ],
    "changelogDate": "20160323063139",
    "dto": "no",
    "service": "no",
    "entityTableName": "category",
    "pagination": "pagination"
}
