{
    "relationships": [
        {
            "relationshipId": 1,
            "relationshipName": "question",
            "otherEntityName": "question",
            "relationshipType": "one-to-many",
            "otherEntityRelationshipName": "questionType"
        }
    ],
    "fields": [
        {
            "fieldId": 1,
            "fieldName": "questionType",
            "fieldType": "String"
        }
    ],
    "changelogDate": "20160323063051",
    "dto": "no",
    "service": "no",
    "entityTableName": "question_type",
    "pagination": "pagination"
}
