{
    "relationships": [
        {
            "relationshipId": 1,
            "relationshipName": "category",
            "otherEntityName": "category",
            "relationshipType": "many-to-one",
            "otherEntityField": "categoryName"
        },
        {
            "relationshipId": 2,
            "relationshipName": "questionType",
            "otherEntityName": "questionType",
            "relationshipType": "many-to-one",
            "otherEntityField": "questionType"
        },
        {
            "relationshipId": 3,
            "relationshipName": "answer",
            "otherEntityName": "answer",
            "relationshipType": "one-to-many",
            "otherEntityRelationshipName": "question"
        }
    ],
    "fields": [
        {
            "fieldId": 1,
            "fieldName": "question",
            "fieldType": "String"
        },
        {
            "fieldId": 2,
            "fieldName": "weightKarma",
            "fieldType": "Integer"
        }
    ],
    "changelogDate": "20160323063418",
    "dto": "no",
    "service": "no",
    "pagination": "pagination"
}