{
    "relationships": [
        {
            "relationshipName": "category",
            "otherEntityName": "category",
            "relationshipType": "one-to-one",
            "otherEntityField": "categoryName",
            "ownerSide": true,
            "otherEntityRelationshipName": "scoreFeedback"
        }
    ],
    "fields": [
        {
            "fieldName": "scoreLevelOne",
            "fieldType": "Scorelevel",
            "fieldValues": "HIGH,MEDIUM,LOW"
        },
        {
            "fieldName": "scoreLevelTwo",
            "fieldType": "Scorelevel",
            "fieldValues": "HIGH,MEDIUM,LOW"
        },
        {
            "fieldName": "userFeedBack",
            "fieldType": "String",
            "fieldValidateRules": [
                "maxlength"
            ],
            "fieldValidateRulesMaxlength": "15000"
        }
    ],
    "changelogDate": "20160514013128",
    "dto": "no",
    "service": "no",
    "entityTableName": "score_feedback",
    "pagination": "pager"
}
